{
  "success": true,
  "data": [
    {
      "game_type": "wingo",
      "bet_id": "550e8400-e29b-41d4-a716-446655440001",
      "created_at": "2024-01-15T10:30:00.000Z",
      "bet_amount": "100.00",
      "win_amount": "200.00",
      "status": "won",
      "type": "Internal",
      "wallet_balance_after": "1500.00"
    },
    {
      "game_type": "fiveD",
      "bet_id": "550e8400-e29b-41d4-a716-446655440002",
      "created_at": "2024-01-15T09:15:00.000Z",
      "bet_amount": "50.00",
      "win_amount": "0.00",
      "status": "lost",
      "type": "Internal",
      "wallet_balance_after": "1350.00"
    },
    {
      "game_type": "k3",
      "bet_id": "550e8400-e29b-41d4-a716-446655440003",
      "created_at": "2024-01-15T08:45:00.000Z",
      "bet_amount": "75.00",
      "win_amount": "150.00",
      "status": "won",
      "type": "Internal",
      "wallet_balance_after": "1425.00"
    },
    {
      "game_type": "trxWix",
      "bet_id": "550e8400-e29b-41d4-a716-446655440004",
      "created_at": "2024-01-15T08:00:00.000Z",
      "bet_amount": "25.00",
      "win_amount": "0.00",
      "status": "lost",
      "type": "Internal",
      "wallet_balance_after": "1400.00"
    }
  ],
  "pagination": {
    "total": 150,
    "page": 1,
    "limit": 20,
    "totalPages": 8,
    "hasNextPage": true,
    "hasPrevPage": false
  }
} 